{
  "project_info": {
    "project_number": "660436444317",
    "project_id": "flutter-study-app-dc1f1",
    "storage_bucket": "flutter-study-app-dc1f1.appspot.com"
  },
  "client": [
    {
      "client_info": {
        "mobilesdk_app_id": "1:660436444317:android:0ddd9389089989c9d86074",
        "android_client_info": {
          "package_name": "com.example.flutter_study_app"
        }
      },
      "oauth_client": [
        {
          "client_id": "660436444317-qsqs7omskkvp9t7hsqoq1isdqoguq4lp.apps.googleusercontent.com",
          "client_type": 3
        }
      ],
      "api_key": [
        {
          "current_key": "AIzaSyA69KRoy04Di2CdGrV6VKXjTKfDDIuCsoc"
        }
      ],
      "services": {
        "appinvite_service": {
          "other_platform_oauth_client": [
            {
              "client_id": "660436444317-qsqs7omskkvp9t7hsqoq1isdqoguq4lp.apps.googleusercontent.com",
              "client_type": 3
            }
          ]
        }
      }
    }
  ],
  "configuration_version": "1"
}